<svg width="24" height="24" viewBox="0 0 24 24" fill="none" xmlns="http://www.w3.org/2000/svg">
<g clip-path="url(#clip0_7001_12917)">
<path d="M20.3401 10.67C19.5701 14.57 16.1301 17.5 12.0001 17.5C8.62008 17.5 5.70008 15.52 4.33008 12.66" stroke="#171321" stroke-miterlimit="10"/>
<path d="M3.69995 7.18C4.52995 3.36 7.92995 0.5 12 0.5C15.41 0.5 18.3599 2.51 19.7099 5.42" stroke="#171321" stroke-miterlimit="10"/>
<path d="M17.5 15.53V23.2L12 19.98L6.5 23.2V15.53" stroke="#171321" stroke-miterlimit="10"/>
<path d="M8.5 9.5L10.5 11.5L15.5 6.5" stroke="#171321" stroke-miterlimit="10"/>
<path d="M20.5 10.5C21.3284 10.5 22 9.82843 22 9C22 8.17157 21.3284 7.5 20.5 7.5C19.6716 7.5 19 8.17157 19 9C19 9.82843 19.6716 10.5 20.5 10.5Z" stroke="#171321" stroke-miterlimit="10"/>
<path d="M3.5 10.5C4.32843 10.5 5 9.82843 5 9C5 8.17157 4.32843 7.5 3.5 7.5C2.67157 7.5 2 8.17157 2 9C2 9.82843 2.67157 10.5 3.5 10.5Z" stroke="#171321" stroke-miterlimit="10"/>
<path d="M22 9H24" stroke="#171321" stroke-miterlimit="10"/>
<path d="M2 9H0" stroke="#171321" stroke-miterlimit="10"/>
</g>
<defs>
<clipPath id="clip0_7001_12917">
<rect width="24" height="24" fill="white"/>
</clipPath>
</defs>
</svg>
