<svg width="32" height="32" viewBox="0 0 32 32" fill="none" xmlns="http://www.w3.org/2000/svg">
<g clip-path="url(#clip0_2520_4)">
<path d="M24.1599 32H7.83991C6.91992 32 6.03762 31.6345 5.38709 30.984C4.73657 30.3335 4.37111 29.4512 4.37111 28.5312V7.80799C4.36931 7.12515 4.56947 6.45702 4.9464 5.88764C5.32333 5.31826 5.86021 4.87304 6.48951 4.60799C6.64539 4.53466 6.81446 4.49355 6.98661 4.48713C7.15875 4.4807 7.33043 4.50909 7.49134 4.5706C7.65225 4.6321 7.79909 4.72545 7.92307 4.84505C8.04704 4.96466 8.1456 5.10806 8.21283 5.26666C8.28007 5.42527 8.31459 5.59581 8.31435 5.76807C8.3141 5.94034 8.27908 6.11078 8.21139 6.26919C8.14371 6.4276 8.04474 6.57072 7.92042 6.68997C7.7961 6.80922 7.64899 6.90215 7.48791 6.96319C7.32232 7.03366 7.18118 7.15139 7.08215 7.30165C6.98311 7.45191 6.93058 7.62803 6.93111 7.80799V28.5312C6.93278 28.7717 7.02907 29.0019 7.19914 29.172C7.36921 29.342 7.59939 29.4383 7.83991 29.44H24.1599C24.4004 29.4383 24.6306 29.342 24.8007 29.172C24.9707 29.0019 25.067 28.7717 25.0687 28.5312V7.80799C25.0695 7.62548 25.0156 7.44692 24.9141 7.29525C24.8126 7.14357 24.6681 7.0257 24.4991 6.95679C24.3344 6.90108 24.1828 6.81241 24.0536 6.69619C23.9243 6.57996 23.82 6.43863 23.7472 6.28079C23.6743 6.12296 23.6344 5.95194 23.6298 5.77816C23.6252 5.60438 23.656 5.43149 23.7204 5.27002C23.7848 5.10855 23.8815 4.9619 24.0044 4.839C24.1274 4.71611 24.274 4.61954 24.4355 4.5552C24.597 4.49086 24.7699 4.46008 24.9437 4.46476C25.1175 4.46943 25.2885 4.50945 25.4463 4.58239C26.0876 4.83752 26.638 5.27848 27.0268 5.84866C27.4157 6.41885 27.6253 7.09223 27.6287 7.78239V28.5312C27.6287 29.4512 27.2632 30.3335 26.6127 30.984C25.9622 31.6345 25.0799 32 24.1599 32Z" fill="#7D2BD9"/>
<path d="M21.1201 9.79174H10.8801C10.5406 9.79174 10.215 9.65689 9.975 9.41684C9.73495 9.17679 9.6001 8.85122 9.6001 8.51174V4.13414C9.6001 3.79467 9.73495 3.46909 9.975 3.22905C10.215 2.989 10.5406 2.85414 10.8801 2.85414H11.9681C12.2513 2.0127 12.7943 1.2829 13.519 0.769914C14.2436 0.256928 15.1124 -0.0127498 16.0001 -0.000256077C16.8834 -0.00038299 17.7449 0.274328 18.465 0.785787C19.1852 1.29725 19.7284 2.02011 20.0193 2.85414H21.1201C21.4596 2.85414 21.7851 2.989 22.0252 3.22905C22.2652 3.46909 22.4001 3.79467 22.4001 4.13414V8.51174C22.4001 8.85122 22.2652 9.17679 22.0252 9.41684C21.7851 9.65689 21.4596 9.79174 21.1201 9.79174ZM12.1601 7.23174H19.8401V5.41414H18.9825C18.6611 5.41531 18.3509 5.29549 18.1138 5.07849C17.8766 4.8615 17.7298 4.56322 17.7025 4.24294C17.6974 3.79478 17.5159 3.36668 17.1971 3.05156C16.8784 2.73644 16.4483 2.55972 16.0001 2.55974C15.7772 2.55803 15.5562 2.60077 15.35 2.68548C15.1438 2.77018 14.9566 2.89514 14.7993 3.05306C14.642 3.21098 14.5177 3.39868 14.4338 3.60518C14.3498 3.81169 14.3079 4.03285 14.3105 4.25574C14.2802 4.57373 14.132 4.86887 13.8952 5.08321C13.6583 5.29755 13.3499 5.41559 13.0305 5.41414H12.1601V7.23174Z" fill="#7D2BD9"/>
<path d="M14.8031 22.112C14.4678 22.1174 14.1437 21.991 13.9007 21.76L11.9423 19.808C11.8233 19.6891 11.729 19.5479 11.6646 19.3925C11.6003 19.2371 11.5671 19.0706 11.5671 18.9024C11.5671 18.7342 11.6003 18.5677 11.6646 18.4123C11.729 18.2569 11.8233 18.1157 11.9423 17.9968C12.0612 17.8779 12.2024 17.7835 12.3577 17.7192C12.5131 17.6548 12.6797 17.6217 12.8479 17.6217C13.016 17.6217 13.1826 17.6548 13.338 17.7192C13.4933 17.7835 13.6345 17.8779 13.7535 17.9968L14.8031 19.0464L18.2463 15.6032C18.4864 15.363 18.8122 15.2281 19.1519 15.2281C19.4915 15.2281 19.8173 15.363 20.0575 15.6032C20.2976 15.8434 20.4326 16.1691 20.4326 16.5088C20.4326 16.8485 20.2976 17.1742 20.0575 17.4144L15.7119 21.76C15.4672 21.9926 15.1405 22.1191 14.8031 22.112Z" fill="#7D2BD9"/>
</g>
<defs>
<clipPath id="clip0_2520_4">
<rect width="32" height="32" fill="white"/>
</clipPath>
</defs>
</svg>
