<svg width="32" height="32" viewBox="0 0 32 32" fill="none" xmlns="http://www.w3.org/2000/svg">
<g clip-path="url(#clip0_110_655)">
<path d="M9.61918 29.9744L10.2816 27.0208C10.4832 26.111 10.4762 25.1675 10.2612 24.2608C10.0462 23.3541 9.62866 22.5079 9.03998 21.7856C8.42332 21.0238 8.0847 20.0745 8.07998 19.0944C8.04158 14.8672 4.30398 15.8944 2.45118 12.3328L1.49438 10.9344C3.36958 5.08478 8.70078 2.47998 8.70078 2.47998C9.04457 2.75075 9.31882 3.0996 9.50078 3.49758C10.3136 5.26718 13.9392 4.64958 13.9072 4.64318C15.9616 4.64318 16.1472 6.98558 16.0736 6.80958C16.0737 7.12166 16.0066 7.43011 15.8769 7.71394C15.7471 7.99777 15.5577 8.25031 15.3216 8.45438L11.2256 11.9744C10.7234 12.3981 10.3517 12.9555 10.1534 13.5819C9.9552 14.2083 9.93861 14.8781 10.1056 15.5136C11.1584 19.6992 18.512 18.016 18.512 22.6496C17.9648 25.6352 15.1936 27.1648 12.4032 30.9344L9.61918 29.9744Z" fill="#38F2AF"/>
<path d="M26.9312 5.21283L25.6896 6.32643C25.3861 6.59879 25.017 6.78757 24.6186 6.87426C24.2202 6.96094 23.806 6.94255 23.4168 6.82089C23.0276 6.69923 22.6768 6.47848 22.3986 6.18029C22.1205 5.88211 21.9247 5.51673 21.8304 5.12003L20.96 1.45923C20.96 1.45923 24.96 2.88003 26.9312 5.21283Z" fill="#38F2AF"/>
<path d="M26.896 26.7904V23.7568C26.896 21.2448 24.8672 22.0704 24.1472 19.4272C24.1504 19.4592 23.36 16.32 23.36 16.32C23.1822 15.8532 23.1205 15.3502 23.1801 14.8542C23.2397 14.3583 23.4189 13.8842 23.7022 13.4728C23.9855 13.0614 24.3644 12.725 24.8065 12.4924C25.2485 12.2598 25.7404 12.138 26.24 12.1376H30.7648C30.7648 12.1376 33.1296 20.4544 26.896 26.7904Z" fill="#38F2AF"/>
<path d="M9.62234 30.6144C9.57562 30.6207 9.52827 30.6207 9.48155 30.6144C9.31619 30.5776 9.17214 30.4769 9.08096 30.3341C8.98979 30.1913 8.95893 30.0183 8.99515 29.8528L9.65755 26.88C9.83195 26.0758 9.82689 25.243 9.6427 24.441C9.45852 23.639 9.09975 22.8875 8.59195 22.24L8.54395 22.1888C7.83214 21.3166 7.44129 20.2265 7.43674 19.1008C7.41754 17.0752 6.51514 16.5408 5.14874 15.7408C4.04154 15.1008 2.78714 14.352 1.89754 12.6592L0.959944 11.2928C0.86489 11.1519 0.829695 10.979 0.862102 10.8122C0.894508 10.6454 0.991861 10.4982 1.13274 10.4032C1.27363 10.3081 1.4465 10.2729 1.61333 10.3053C1.78016 10.3377 1.92729 10.4351 2.02234 10.576L2.96634 11.9744L3.00474 12.0384C3.72474 13.4272 4.77114 14.0416 5.78554 14.6368C7.20954 15.472 8.66555 16.336 8.70395 19.0912C8.70546 19.1125 8.70546 19.1339 8.70395 19.1552C8.73033 19.9725 9.02242 20.7588 9.53594 21.3952C10.1887 22.1872 10.6522 23.1177 10.8912 24.1158C11.1302 25.1139 11.1384 26.1534 10.9151 27.1552L10.2399 30.1152C10.2082 30.2558 10.13 30.3816 10.0179 30.4722C9.90585 30.5628 9.76646 30.6129 9.62234 30.6144Z" fill="#341472"/>
<path d="M12.4032 31.5743C12.2846 31.5745 12.1683 31.5417 12.0673 31.4796C11.9662 31.4175 11.8844 31.3286 11.831 31.2227C11.7776 31.1168 11.7546 30.9982 11.7647 30.8801C11.7747 30.7619 11.8174 30.6489 11.888 30.5535C12.819 29.3261 13.8258 28.1579 14.9024 27.0559C16.4352 25.4367 17.5456 24.2623 17.8688 22.5759C17.8432 20.7455 16.4576 20.1759 14.2112 19.4047C12.2912 18.7423 10.1024 17.9935 9.49758 15.7055C9.29252 14.9486 9.30698 14.1489 9.53929 13.3998C9.7716 12.6508 10.2122 11.9832 10.8096 11.4751L14.9024 7.95515C15.0693 7.81187 15.2032 7.63414 15.2949 7.43417C15.3866 7.2342 15.4339 7.01674 15.4336 6.79675C15.432 6.7701 15.432 6.74339 15.4336 6.71675C15.3856 6.43195 15.1136 5.29915 13.9424 5.27355C13.2704 5.37595 9.84638 5.78875 8.91198 3.75035L8.89278 3.70235C8.75335 3.42645 8.55832 3.1824 8.31998 2.98555C8.18631 2.88031 8.09992 2.72628 8.07981 2.55735C8.05971 2.38842 8.10754 2.21842 8.21278 2.08475C8.31801 1.95108 8.47204 1.86469 8.64097 1.84458C8.80991 1.82448 8.97991 1.87231 9.11358 1.97755C9.529 2.31786 9.86348 2.74635 10.0928 3.23195C10.608 4.35835 13.2352 4.11835 13.7696 4.02235C13.8176 4.00969 13.8671 4.00324 13.9168 4.00315C15.8368 4.00315 16.5856 5.60315 16.72 6.56315C16.7375 6.67661 16.7375 6.79209 16.72 6.90555C16.7077 7.29055 16.6161 7.66888 16.4509 8.01686C16.2857 8.36485 16.0505 8.67501 15.76 8.92795L11.664 12.4479C11.2636 12.7818 10.9623 13.2191 10.7931 13.7122C10.6238 14.2053 10.593 14.7353 10.704 15.2447C10.719 15.2765 10.7308 15.3098 10.7392 15.3439C11.1552 17.0015 12.848 17.5839 14.64 18.1983C16.7616 18.9279 19.1648 19.7535 19.1648 22.6367C19.1695 22.675 19.1695 22.7137 19.1648 22.7519C18.7872 24.8255 17.4304 26.2719 15.8592 27.9231C14.818 28.9877 13.8444 30.1163 12.944 31.3023C12.8833 31.3888 12.8021 31.4589 12.7078 31.5063C12.6134 31.5538 12.5088 31.5772 12.4032 31.5743Z" fill="#341472"/>
<path d="M24.128 7.57117C23.454 7.56902 22.8001 7.3413 22.2706 6.92431C21.7411 6.50732 21.3665 5.92507 21.2064 5.27037L20.336 1.59997C20.2969 1.43448 20.3252 1.26025 20.4147 1.11562C20.5041 0.970996 20.6473 0.867812 20.8128 0.828772C20.8947 0.809442 20.9797 0.806441 21.0628 0.819941C21.1459 0.833441 21.2255 0.863177 21.2971 0.907452C21.4418 0.996869 21.5449 1.14008 21.584 1.30557L22.4544 4.96637C22.5199 5.2592 22.6614 5.5296 22.8647 5.75037C23.0679 5.97114 23.3257 6.13451 23.6121 6.22403C23.8985 6.31355 24.2034 6.32608 24.4962 6.26034C24.789 6.19461 25.0593 6.05294 25.28 5.84957L26.5216 4.73597C26.5846 4.67987 26.6581 4.63674 26.7378 4.60903C26.8175 4.58132 26.9019 4.56958 26.9861 4.57449C27.0704 4.57939 27.1528 4.60084 27.2288 4.6376C27.3047 4.67437 27.3727 4.72574 27.4288 4.78877C27.4849 4.85181 27.528 4.92527 27.5557 5.00498C27.5834 5.08468 27.5952 5.16907 27.5903 5.25331C27.5854 5.33755 27.5639 5.42 27.5271 5.49595C27.4904 5.5719 27.439 5.63987 27.376 5.69597L26.1344 6.81277C25.5834 7.30672 24.8679 7.57718 24.128 7.57117Z" fill="#341472"/>
<path d="M26.896 27.4304C26.7263 27.4304 26.5635 27.363 26.4434 27.243C26.3234 27.1229 26.256 26.9602 26.256 26.7904V23.7568C26.256 22.7744 25.936 22.5344 25.3376 22.1024C24.4331 21.533 23.7849 20.6347 23.5296 19.5968C23.4736 19.4353 23.4266 19.2708 23.3888 19.104L22.7488 16.512C22.5406 15.9488 22.4715 15.3437 22.5474 14.748C22.6232 14.1524 22.8419 13.5839 23.1847 13.0909C23.5275 12.5979 23.9843 12.195 24.5162 11.9165C25.0482 11.638 25.6395 11.4921 26.24 11.4912H30.7648C30.9345 11.4912 31.0973 11.5586 31.2173 11.6787C31.3374 11.7987 31.4048 11.9615 31.4048 12.1312C31.4048 12.3009 31.3374 12.4637 31.2173 12.5838C31.0973 12.7038 30.9345 12.7712 30.7648 12.7712H26.24C25.8452 12.774 25.457 12.8722 25.1083 13.0575C24.7597 13.2428 24.4611 13.5096 24.2379 13.8353C24.0147 14.1609 23.8736 14.5357 23.8266 14.9277C23.7796 15.3197 23.8281 15.7172 23.968 16.0864C23.968 16.112 23.968 16.1344 23.9904 16.16C24.2752 17.312 24.7136 19.0592 24.7616 19.2416C24.7616 19.2416 24.7616 19.2416 24.7616 19.2608C24.8524 19.635 25.0166 19.9875 25.2445 20.2978C25.4725 20.6082 25.7597 20.8702 26.0896 21.0688C26.7648 21.5616 27.5328 22.1248 27.5328 23.7568V26.7904C27.5328 26.9596 27.4658 27.1219 27.3465 27.2418C27.2271 27.3618 27.0652 27.4296 26.896 27.4304Z" fill="#341472"/>
<path d="M1.49445 11.5743C1.42145 11.5755 1.34884 11.5636 1.28005 11.5391C1.20058 11.5115 1.12734 11.4684 1.06453 11.4124C1.00173 11.3564 0.950578 11.2886 0.914019 11.2128C0.87746 11.137 0.856207 11.0547 0.851476 10.9707C0.846745 10.8867 0.858629 10.8026 0.886449 10.7231C1.77857 8.16469 3.30581 5.87472 5.32496 4.06791C7.34411 2.26111 9.78904 0.996673 12.4305 0.393159C15.072 -0.210356 17.8234 -0.133178 20.4269 0.617457C23.0303 1.36809 25.4006 2.76759 27.3152 4.68474C27.3747 4.7442 27.4219 4.81479 27.4541 4.89249C27.4862 4.97018 27.5028 5.05345 27.5028 5.13754C27.5028 5.22163 27.4862 5.3049 27.4541 5.38259C27.4219 5.46028 27.3747 5.53088 27.3152 5.59034C27.2558 5.6498 27.1852 5.69697 27.1075 5.72915C27.0298 5.76133 26.9465 5.77789 26.8624 5.77789C26.7784 5.77789 26.6951 5.76133 26.6174 5.72915C26.5397 5.69697 26.4691 5.6498 26.4096 5.59034C24.6482 3.82526 22.4673 2.53659 20.0714 1.84524C17.6756 1.15388 15.1433 1.0825 12.7123 1.63779C10.2813 2.19308 8.03126 3.35684 6.17319 5.01988C4.31513 6.68292 2.91001 8.79073 2.08965 11.1455C2.04636 11.2694 1.96604 11.377 1.85958 11.4537C1.75312 11.5304 1.62565 11.5725 1.49445 11.5743Z" fill="#341472"/>
<path d="M16 32C11.7581 31.995 7.69138 30.3076 4.6919 27.3081C1.69242 24.3087 0.00508114 20.242 0 16C0 15.4912 0.0256 14.9792 0.0704 14.4768C0.0861008 14.3071 0.168587 14.1506 0.299712 14.0416C0.430838 13.9327 0.599861 13.8803 0.7696 13.896C0.939339 13.9117 1.09589 13.9942 1.20481 14.1254C1.31373 14.2565 1.3661 14.4255 1.3504 14.5952C1.3024 15.0592 1.28 15.5328 1.28 16C1.2801 18.6654 2.0039 21.2807 3.37414 23.5669C4.74439 25.8531 6.70966 27.7243 9.06023 28.9809C11.4108 30.2375 14.0584 30.8323 16.7206 30.7018C19.3828 30.5713 21.9596 29.7205 24.176 28.24C24.246 28.1932 24.3245 28.1606 24.4071 28.1441C24.4896 28.1276 24.5746 28.1275 24.6573 28.1438C24.7399 28.1601 24.8184 28.1926 24.8885 28.2393C24.9586 28.286 25.0187 28.3461 25.0656 28.416C25.1125 28.486 25.1451 28.5645 25.1616 28.6471C25.1781 28.7297 25.1782 28.8147 25.1618 28.8973C25.1455 28.9799 25.113 29.0585 25.0663 29.1285C25.0196 29.1986 24.9596 29.2588 24.8896 29.3056C22.26 31.0672 19.1651 32.0052 16 32Z" fill="#341472"/>
<path d="M26.9472 27.4144C26.7793 27.4137 26.6184 27.347 26.4992 27.2288C26.38 27.1089 26.3131 26.9466 26.3131 26.7776C26.3131 26.6085 26.38 26.4463 26.4992 26.3264C28.8361 23.952 30.2984 20.8551 30.6472 17.5419C30.9959 14.2288 30.2105 10.8953 28.4192 8.08637C28.3704 8.01559 28.3363 7.9357 28.3191 7.85147C28.3018 7.76724 28.3017 7.6804 28.3188 7.59613C28.3358 7.51185 28.3697 7.43188 28.4183 7.36098C28.4669 7.29008 28.5294 7.2297 28.6018 7.18346C28.6743 7.13722 28.7554 7.10605 28.8402 7.09183C28.925 7.0776 29.0118 7.08061 29.0954 7.10067C29.179 7.12073 29.2577 7.15742 29.3268 7.20857C29.3959 7.25972 29.454 7.32427 29.4976 7.39837C31.4482 10.4528 32.3041 14.079 31.9251 17.6833C31.546 21.2877 29.9546 24.6565 27.4112 27.2384C27.3495 27.2971 27.2766 27.343 27.197 27.3732C27.1173 27.4034 27.0324 27.4174 26.9472 27.4144Z" fill="#341472"/>
</g>
<defs>
<clipPath id="clip0_110_655">
<rect width="32" height="32" fill="white"/>
</clipPath>
</defs>
</svg>
