<svg width="32" height="32" viewBox="0 0 32 32" fill="none" xmlns="http://www.w3.org/2000/svg">
<path d="M23.2191 30.5185C23.0769 30.5177 22.939 30.4697 22.8272 30.3819C22.7153 30.2942 22.6359 30.1716 22.6014 30.0337C22.5669 29.8957 22.5793 29.7502 22.6367 29.6202C22.6941 29.4901 22.7932 29.3828 22.9183 29.3153C25.275 28.0604 27.246 26.1881 28.6203 23.899C29.9946 21.6098 30.7203 18.99 30.7199 16.3201C30.7199 16.1503 30.7873 15.9875 30.9074 15.8675C31.0274 15.7475 31.1902 15.6801 31.3599 15.6801C31.5296 15.6801 31.6924 15.7475 31.8125 15.8675C31.9325 15.9875 31.9999 16.1503 31.9999 16.3201C32.0003 19.2221 31.2114 22.0697 29.7176 24.5578C28.2238 27.0459 26.0815 29.0809 23.5199 30.4448C23.4272 30.4936 23.3239 30.5189 23.2191 30.5185Z" fill="#171321"/>
<path d="M17.1552 20.8289C17.0016 20.8302 16.8527 20.7762 16.7356 20.6768C16.6185 20.5774 16.5411 20.4393 16.5174 20.2875C16.4937 20.1358 16.5254 19.9806 16.6067 19.8503C16.6879 19.7199 16.8133 19.6232 16.96 19.5777C17.6617 19.3673 18.2773 18.9373 18.7162 18.3508C19.1552 17.7644 19.3943 17.0526 19.3984 16.3201C19.3984 16.1503 19.4658 15.9875 19.5859 15.8675C19.7059 15.7475 19.8687 15.6801 20.0384 15.6801C20.2082 15.6801 20.3709 15.7475 20.491 15.8675C20.611 15.9875 20.6784 16.1503 20.6784 16.3201C20.6737 17.3258 20.3467 18.3036 19.7454 19.1099C19.1441 19.9162 18.3003 20.5086 17.3376 20.8001C17.2787 20.819 17.2171 20.8288 17.1552 20.8289Z" fill="#171321"/>
<path d="M20.3904 31.68C20.2524 31.6802 20.1179 31.6358 20.0072 31.5533C19.8965 31.4708 19.8154 31.3548 19.776 31.2224L16.5408 20.3712C16.5009 20.2113 16.5241 20.0422 16.6058 19.899C16.6874 19.7558 16.8212 19.6497 16.9792 19.6026C17.1371 19.5556 17.3071 19.5714 17.4538 19.6466C17.6005 19.7218 17.7124 19.8507 17.7664 20.0064L21.0048 30.8576C21.0289 30.9383 21.0368 31.023 21.0281 31.1067C21.0194 31.1905 20.9943 31.2717 20.9542 31.3457C20.9141 31.4197 20.8597 31.4851 20.7943 31.5381C20.7288 31.591 20.6536 31.6306 20.5728 31.6544C20.5137 31.6723 20.4522 31.681 20.3904 31.68Z" fill="#171321"/>
<path d="M14.8447 20.8289C14.783 20.8298 14.7214 20.8211 14.6623 20.8033C13.6992 20.5116 12.8549 19.9188 12.2536 19.1119C11.6523 18.3049 11.3256 17.3264 11.3215 16.3201C11.3215 16.1503 11.389 15.9875 11.509 15.8675C11.629 15.7475 11.7918 15.6801 11.9615 15.6801C12.1313 15.6801 12.2941 15.7475 12.4141 15.8675C12.5341 15.9875 12.6015 16.1503 12.6015 16.3201C12.6056 17.0526 12.8447 17.7644 13.2837 18.3508C13.7227 18.9373 14.3383 19.3673 15.0399 19.5777C15.1856 19.6228 15.3103 19.7186 15.3916 19.8475C15.4729 19.9765 15.5055 20.1303 15.4835 20.2812C15.4615 20.4321 15.3864 20.5702 15.2716 20.6706C15.1569 20.771 15.01 20.8271 14.8575 20.8289H14.8447Z" fill="#171321"/>
<path d="M11.6096 31.6801C11.5478 31.681 11.4863 31.6723 11.4272 31.6545C8.13297 30.6566 5.24549 28.6288 3.18875 25.8688C1.13201 23.1088 0.01439 19.7621 0 16.3201C0 16.1503 0.0674284 15.9875 0.187452 15.8675C0.307475 15.7475 0.470261 15.6801 0.64 15.6801C0.809739 15.6801 0.972525 15.7475 1.09255 15.8675C1.21257 15.9875 1.28 16.1503 1.28 16.3201C1.29359 19.4866 2.3218 22.5654 4.21372 25.1047C6.10565 27.644 8.76167 29.51 11.792 30.4289C11.9376 30.474 12.0623 30.5698 12.1437 30.6987C12.225 30.8277 12.2576 30.9815 12.2356 31.1324C12.2136 31.2833 12.1385 31.4214 12.0237 31.5218C11.9089 31.6222 11.7621 31.6783 11.6096 31.6801Z" fill="#171321"/>
<path d="M11.6096 31.68C11.5479 31.681 11.4863 31.6723 11.4272 31.6544C11.3465 31.6306 11.2712 31.591 11.2058 31.5381C11.1404 31.4851 11.086 31.4197 11.0459 31.3457C11.0057 31.2717 10.9806 31.1905 10.9719 31.1067C10.9632 31.023 10.9712 30.9383 10.9952 30.8576L14.2336 20.0064C14.2876 19.8507 14.3996 19.7218 14.5463 19.6466C14.6929 19.5714 14.8629 19.5556 15.0209 19.6026C15.1789 19.6497 15.3126 19.7558 15.3943 19.899C15.4759 20.0422 15.4992 20.2113 15.4592 20.3712L12.224 31.2224C12.1847 31.3548 12.1036 31.4708 11.9929 31.5533C11.8821 31.6358 11.7477 31.6802 11.6096 31.68Z" fill="#171321"/>
<path d="M1.04323 13.4399C0.99428 13.4447 0.944987 13.4447 0.896034 13.4399C0.731074 13.4011 0.588239 13.2985 0.498855 13.1545C0.409472 13.0105 0.380838 12.837 0.419234 12.6719C1.2301 9.15103 3.21405 6.01047 6.04534 3.7659C8.87663 1.52134 12.387 0.306178 16 0.31994C16.1698 0.31994 16.3326 0.387368 16.4526 0.507391C16.5726 0.627415 16.64 0.790201 16.64 0.95994C16.64 1.12968 16.5726 1.29246 16.4526 1.41249C16.3326 1.53251 16.1698 1.59994 16 1.59994C12.6761 1.58621 9.4464 2.70326 6.84124 4.76762C4.23608 6.83197 2.4104 9.7209 1.66403 12.9599C1.62851 13.0975 1.54823 13.2193 1.43583 13.3062C1.32343 13.3932 1.18531 13.4402 1.04323 13.4399Z" fill="#171321"/>
<path d="M31.3601 16.9599C31.1904 16.9599 31.0276 16.8925 30.9076 16.7725C30.7875 16.6525 30.7201 16.4897 30.7201 16.3199C30.7159 12.4173 29.1637 8.67563 26.404 5.91601C23.6444 3.15639 19.9028 1.60418 16.0001 1.59995C15.8304 1.59995 15.6676 1.53252 15.5476 1.41249C15.4275 1.29247 15.3601 1.12968 15.3601 0.959946C15.3601 0.790208 15.4275 0.627421 15.5476 0.507398C15.6676 0.387375 15.8304 0.319946 16.0001 0.319946C20.242 0.325027 24.3087 2.01237 27.3082 5.01185C30.3077 8.01133 31.995 12.078 32.0001 16.3199C32.0001 16.4897 31.9327 16.6525 31.8127 16.7725C31.6926 16.8925 31.5298 16.9599 31.3601 16.9599Z" fill="#171321"/>
<path d="M20.0383 16.96C19.8686 16.96 19.7058 16.8926 19.5858 16.7726C19.4658 16.6525 19.3983 16.4897 19.3983 16.32C19.3983 15.4187 19.0403 14.5543 18.403 13.917C17.7656 13.2796 16.9012 12.9216 15.9999 12.9216C15.0986 12.9216 14.2342 13.2796 13.5969 13.917C12.9596 14.5543 12.6015 15.4187 12.6015 16.32C12.6015 16.4897 12.5341 16.6525 12.4141 16.7726C12.2941 16.8926 12.1313 16.96 11.9615 16.96C11.7918 16.96 11.629 16.8926 11.509 16.7726C11.389 16.6525 11.3215 16.4897 11.3215 16.32C11.3215 15.0792 11.8144 13.8892 12.6918 13.0119C13.5692 12.1345 14.7591 11.6416 15.9999 11.6416C17.2407 11.6416 18.4307 12.1345 19.3081 13.0119C20.1854 13.8892 20.6783 15.0792 20.6783 16.32C20.6783 16.4897 20.6109 16.6525 20.4909 16.7726C20.3709 16.8926 20.2081 16.96 20.0383 16.96Z" fill="#171321"/>
</svg>
