<svg width="27" height="33" viewBox="0 0 27 33" fill="none" xmlns="http://www.w3.org/2000/svg">
<path d="M13.371 32.731C13.293 32.731 13.241 32.731 13.189 32.705C9.08018 31.2227 3.28103 27.0618 1.53868 23.4211C-0.0996498 20.0144 -0.0476392 17.1538 0.0303763 12.837C0.0563815 10.9126 0.108392 8.72816 0.0303763 6.02362C0.0303763 5.86759 0.0823863 5.73756 0.186407 5.63354C0.290428 5.52952 0.446459 5.47751 0.576485 5.47751C0.654501 5.47751 7.96196 5.9196 13.007 0.874594C13.215 0.666552 13.5791 0.692557 13.7611 0.900599C19.0922 6.69976 26.0356 5.50352 26.1136 5.50352C26.2696 5.47751 26.4256 5.52952 26.5557 5.63354C26.6857 5.73756 26.7377 5.8936 26.7377 6.04963C26.6597 8.75417 26.6857 10.9386 26.7377 12.863C26.8157 17.1799 26.8677 20.0404 25.2294 23.4471C23.4871 27.0878 17.6879 31.2747 13.5791 32.731C13.5011 32.731 13.4231 32.731 13.371 32.731ZM1.07058 6.54373C1.1486 9.01422 1.09659 11.0426 1.07058 12.863C0.992569 17.1799 0.940558 19.7804 2.47486 22.953C3.93115 25.9956 9.00217 30.0264 13.371 31.6647C17.7399 30.0524 22.8109 26.0216 24.2672 22.953C25.8015 19.7804 25.7495 17.1799 25.6715 12.863C25.6455 11.0686 25.5935 9.06623 25.6715 6.59574C23.7991 6.77777 18.104 6.85579 13.345 1.96681C8.82013 6.25767 2.91695 6.56973 1.07058 6.54373Z" fill="#171321"/>
<path d="M13.3678 20.5416C13.0817 20.5416 12.8477 20.3076 12.8477 20.0215V17.9151C12.8477 17.6291 13.0817 17.395 13.3678 17.395C13.6538 17.395 13.8879 17.6291 13.8879 17.9151V20.0215C13.8879 20.3076 13.6538 20.5416 13.3678 20.5416Z" fill="#171321"/>
<path d="M13.3671 18.9339C12.821 18.9339 12.3789 18.4918 12.3789 17.9457C12.3789 17.3996 12.821 16.9575 13.3671 16.9575C13.9132 16.9575 14.3553 17.3996 14.3553 17.9457C14.3553 18.4918 13.9132 18.9339 13.3671 18.9339ZM13.3671 17.8937C13.3411 17.8937 13.3151 17.9197 13.3151 17.9457C13.3151 17.9977 13.3931 17.9977 13.3931 17.9457C13.4191 17.8937 13.3931 17.8937 13.3671 17.8937Z" fill="#171321"/>
<path d="M17.1397 14.5629C16.8537 14.5629 16.6196 14.3289 16.6196 14.0428V12.3265C16.6196 10.5321 15.1633 9.07585 13.369 9.07585C11.5746 9.07585 10.1183 10.5321 10.1183 12.3265V14.0428C10.1183 14.3289 9.88429 14.5629 9.59823 14.5629C9.31217 14.5629 9.07812 14.3289 9.07812 14.0428V12.3265C9.07812 9.96003 11.0025 8.03564 13.369 8.03564C15.7355 8.03564 17.6598 9.96003 17.6598 12.3265V14.0428C17.6598 14.3289 17.4258 14.5629 17.1397 14.5629Z" fill="#171321"/>
<path d="M18.7511 22.9633H7.98495C7.69889 22.9633 7.46484 22.7293 7.46484 22.4432V14.6417C7.46484 14.3556 7.69889 14.1216 7.98495 14.1216H18.7511C19.0372 14.1216 19.2712 14.3556 19.2712 14.6417V22.4432C19.2712 22.7293 19.0372 22.9633 18.7511 22.9633ZM8.50505 21.9231H18.231V15.1618H8.50505V21.9231Z" fill="#171321"/>
</svg>
