<svg width="24" height="24" viewBox="0 0 24 24" fill="none" xmlns="http://www.w3.org/2000/svg">
<path d="M0 2.5H23.5V15.5C23.5 17.16 22.16 18.5 20.5 18.5H0.5V5" stroke="#171321" stroke-miterlimit="10"/>
<path d="M8.5 22.5V18.5" stroke="#171321" stroke-miterlimit="10"/>
<path d="M15.5 18.5V22.5" stroke="#171321" stroke-miterlimit="10"/>
<path d="M19 22.5H5" stroke="#171321" stroke-miterlimit="10"/>
<path d="M8.5 10.45L10.53 12.48L15.5 7.51999" stroke="#171321" stroke-miterlimit="10"/>
</svg>
