<svg width="24" height="24" viewBox="0 0 24 24" fill="none" xmlns="http://www.w3.org/2000/svg">
<path d="M17.5 23.5C20.8137 23.5 23.5 20.8137 23.5 17.5C23.5 14.1863 20.8137 11.5 17.5 11.5C14.1863 11.5 11.5 14.1863 11.5 17.5C11.5 20.8137 14.1863 23.5 17.5 23.5Z" stroke="#171321" stroke-miterlimit="10"/>
<path d="M11.57 18.43C8.7 17.98 6.5 15.5 6.5 12.5C6.5 9.19 9.19 6.5 12.5 6.5C15.47 6.5 17.94 8.66 18.42 11.5" stroke="#171321" stroke-miterlimit="10"/>
<path d="M18.25 14.22C17.66 16.2 16.08 17.74 14.09 18.29" stroke="#171321" stroke-miterlimit="10"/>
<path d="M12.25 8.22C11.66 10.2 10.08 11.74 8.09 12.29" stroke="#171321" stroke-miterlimit="10"/>
<path d="M6.26 12.5C3.06 12.38 0.5 9.74 0.5 6.5C0.5 3.26 3.19 0.5 6.5 0.5C9.81 0.5 12.37 3.06 12.5 6.26" stroke="#171321" stroke-miterlimit="10"/>
</svg>
