<svg width="25" height="24" viewBox="0 0 25 24" fill="none" xmlns="http://www.w3.org/2000/svg">
<path fill-rule="evenodd" clip-rule="evenodd" d="M8.59467 3.59467C8.88756 3.30178 9.36244 3.30178 9.65533 3.59467L17.5331 11.4724C17.826 11.7653 17.826 12.2402 17.5331 12.5331L9.65533 20.4108C9.36244 20.7037 8.88756 20.7037 8.59467 20.4108C8.30178 20.1179 8.30178 19.6431 8.59467 19.3502L15.9421 12.0027L8.59467 4.65533C8.30178 4.36244 8.30178 3.88756 8.59467 3.59467Z" fill="white"/>
</svg>
