<svg width="73" height="61" viewBox="0 0 73 61" fill="none" xmlns="http://www.w3.org/2000/svg">
<circle cx="70" cy="28" r="3" fill="#7759C2"/>
<circle cx="5" cy="56" r="5" fill="#A989F5"/>
<path d="M23.2052 3.37183C23.1205 2.85025 23.7977 2.57226 24.1055 3.00224L32.8792 15.2579C33.0944 15.5585 32.9207 15.98 32.5564 16.0412L27.5911 16.8758C27.3195 16.9214 27.1364 17.1781 27.1815 17.4498L28.824 27.3297C28.911 27.8533 28.2298 28.1326 27.9227 27.6993L18.2494 14.0525C18.0369 13.7528 18.2089 13.3347 18.5705 13.2716L24.155 12.2979C24.4244 12.251 24.6057 11.9963 24.5619 11.7263L23.2052 3.37183Z" fill="#FC6D26"/>
</svg>
